{
  "name": "Wallpaper Slideshow",
  "description": "Wallpaper slideshow extension for GNOME. Optionally downloads BING wallpaper of the day.\n Automatically changes the wallpaper (background) at a user defined interval.",
  "uuid": "azwallpaper@azwallpaper.gitlab.com",
  "gettext-domain": "azwallpaper",
  "settings-schema": "org.gnome.shell.extensions.azwallpaper",
  "version": 6,
  "shell-version": ["45"],
  "url": "https://gitlab.com/AndrewZaech/azwallpaper",
  "donations": {
    "paypal": "azaech"
  }
}
